{
  "IsRegenerate": true,
  "MenuPosition": "",
  "RelativeNamespace": "Jobs",
  "EntityName": "JobProductItem",
  "EntityNamePlural": "JobProductItems",
  "TableName": "JobProductItems",
  "PrimaryKeyType": "int",
  "BaseClass": "FullAuditedEntity",
  "EntityHistory": false,
  "AutoMigration": true,
  "UpdateDatabase": true,
  "CreateUserInterface": false,
  "CreateViewOnly": false,
  "CreateExcelExport": false,
  "IsNonModalCRUDPage": false,
  "PagePermission": {
    "Host": false,
    "Tenant": true
  },
  "Properties": [
    {
      "Name": "Quantity",
      "Type": "int",
      "MaxLength": -1,
      "MinLength": -1,
      "Range": {
        "IsRangeSet": false,
        "MinimumValue": 0,
        "MaximumValue": 0
      },
      "Required": false,
      "Nullable": true,
      "Regex": "",
      "UserInterface": {
        "AdvancedFilter": false,
        "List": false,
        "CreateOrUpdate": true
      }
    }
  ],
  "NavigationProperties": [
    {
      "Namespace": "TheSolarProduct.Jobs",
      "ForeignEntityName": "Job",
      "IdType": "int",
      "IsNullable": true,
      "PropertyName": "JobId",
      "DisplayPropertyName": "Note",
      "DuplicationNumber": 0,
      "RelationType": "single",
      "ViewType": "Dropdown"
    },
    {
      "Namespace": "TheSolarProduct.Jobs",
      "ForeignEntityName": "ProductItem",
      "IdType": "int",
      "IsNullable": true,
      "PropertyName": "ProductItemId",
      "DisplayPropertyName": "Name",
      "DuplicationNumber": 0,
      "RelationType": "single",
      "ViewType": "Dropdown"
    }
  ],
  "EnumDefinitions": [],
  "DbContext": null
}