{
  "IsRegenerate": true,
  "MenuPosition": "",
  "RelativeNamespace": "Jobs",
  "EntityName": "JobPromotion",
  "EntityNamePlural": "JobPromotions",
  "TableName": "JobPromotions",
  "PrimaryKeyType": "int",
  "BaseClass": "FullAuditedEntity",
  "EntityHistory": false,
  "AutoMigration": true,
  "UpdateDatabase": true,
  "CreateUserInterface": false,
  "CreateViewOnly": false,
  "CreateExcelExport": false,
  "IsNonModalCRUDPage": false,
  "PagePermission": {
    "Host": false,
    "Tenant": true
  },
  "Properties": [],
  "NavigationProperties": [
    {
      "Namespace": "TheSolarProduct.Jobs",
      "ForeignEntityName": "Job",
      "IdType": "int",
      "IsNullable": false,
      "PropertyName": "JobId",
      "DisplayPropertyName": "StreetName",
      "DuplicationNumber": 0,
      "RelationType": "single",
      "ViewType": "Dropdown"
    },
    {
      "Namespace": "TheSolarProduct.Jobs",
      "ForeignEntityName": "PromotionMaster",
      "IdType": "int",
      "IsNullable": true,
      "PropertyName": "PromotionMasterId",
      "DisplayPropertyName": "Name",
      "DuplicationNumber": 0,
      "RelationType": "single",
      "ViewType": "Dropdown"
    }
  ],
  "EnumDefinitions": [],
  "DbContext": null
}