{
  "IsRegenerate": false,
  "MenuPosition": "main",
  "RelativeNamespace": "PostCodes",
  "EntityName": "PostCode",
  "EntityNamePlural": "PostCodes",
  "TableName": "PostCodes",
  "PrimaryKeyType": "int",
  "BaseClass": "FullAuditedEntity",
  "EntityHistory": false,
  "AutoMigration": true,
  "UpdateDatabase": true,
  "CreateUserInterface": true,
  "CreateViewOnly": true,
  "CreateExcelExport": true,
  "IsNonModalCRUDPage": true,
  "PagePermission": {
    "Host": true,
    "Tenant": false
  },
  "Properties": [
    {
      "Name": "PostalCode",
      "Type": "string",
      "MaxLength": 50,
      "MinLength": 2,
      "Range": {
        "IsRangeSet": false,
        "MinimumValue": 0,
        "MaximumValue": 0
      },
      "Required": true,
      "Nullable": false,
      "Regex": "(/^[0-9]+$/)",
      "UserInterface": {
        "AdvancedFilter": true,
        "List": true,
        "CreateOrUpdate": true
      }
    },
    {
      "Name": "Suburb",
      "Type": "string",
      "MaxLength": 50,
      "MinLength": 2,
      "Range": {
        "IsRangeSet": false,
        "MinimumValue": 0,
        "MaximumValue": 0
      },
      "Required": true,
      "Nullable": false,
      "Regex": "",
      "UserInterface": {
        "AdvancedFilter": true,
        "List": true,
        "CreateOrUpdate": true
      }
    },
    {
      "Name": "POBoxes",
      "Type": "string",
      "MaxLength": 50,
      "MinLength": 2,
      "Range": {
        "IsRangeSet": false,
        "MinimumValue": 0,
        "MaximumValue": 0
      },
      "Required": true,
      "Nullable": false,
      "Regex": "",
      "UserInterface": {
        "AdvancedFilter": true,
        "List": true,
        "CreateOrUpdate": true
      }
    },
    {
      "Name": "Area",
      "Type": "string",
      "MaxLength": 50,
      "MinLength": 2,
      "Range": {
        "IsRangeSet": false,
        "MinimumValue": 0,
        "MaximumValue": 0
      },
      "Required": false,
      "Nullable": false,
      "Regex": "",
      "UserInterface": {
        "AdvancedFilter": true,
        "List": true,
        "CreateOrUpdate": true
      }
    }
  ],
  "NavigationProperties": [
    {
      "Namespace": "TheSolarProduct.States",
      "ForeignEntityName": "State",
      "IdType": "int",
      "IsNullable": false,
      "PropertyName": "StateId",
      "DisplayPropertyName": "Name",
      "DuplicationNumber": 0,
      "RelationType": "single",
      "ViewType": "Dropdown"
    }
  ],
  "EnumDefinitions": [],
  "DbContext": null
}