{
  "IsRegenerate": true,
  "MenuPosition": "main",
  "RelativeNamespace": "RejectReasons",
  "EntityName": "RejectReason",
  "EntityNamePlural": "RejectReasons",
  "TableName": "RejectReasons",
  "PrimaryKeyType": "int",
  "BaseClass": "FullAuditedEntity",
  "EntityHistory": false,
  "AutoMigration": true,
  "UpdateDatabase": true,
  "CreateUserInterface": true,
  "CreateViewOnly": true,
  "CreateExcelExport": true,
  "IsNonModalCRUDPage": false,
  "PagePermission": {
    "Host": false,
    "Tenant": true
  },
  "Properties": [
    {
      "Name": "RejectReasonName",
      "Type": "string",
      "MaxLength": 100,
      "MinLength": 2,
      "Range": {
        "IsRangeSet": false,
        "MinimumValue": 0,
        "MaximumValue": 0
      },
      "Required": true,
      "Nullable": false,
      "Regex": "",
      "UserInterface": {
        "AdvancedFilter": true,
        "List": true,
        "CreateOrUpdate": true
      }
    }
  ],
  "NavigationProperties": [],
  "EnumDefinitions": [],
  "DbContext": null
}