{
  "type": "service_account",
  "project_id": "arisesolar",
  "private_key_id": "692588a0321d681445ddbeb3b5aeb8eb74ce2495",
  "private_key": "-----BEGIN PRIVATE KEY-----\nMIIEvAIBADANBgkqhkiG9w0BAQEFAASCBKYwggSiAgEAAoIBAQChQLqWKEGv59c0\n+cSnWdKdHQjHulDcmBxcf3a6ZbNCvYpJKP85QH1+ci1+Jc0Ri8Bx1Y3MUIfYjeOI\nzFuJZWoPZRtRL/W5WYpyxubuPMR5ivDBJLfY/cGwP7XDhOS6/+NND+iTop0ZXMKk\nKjNEad+R94ywuFb2ewpRx5Z1Ie+LclN/nB9K8+NA7UiHocLJDpHeAzSNYk7vKLZS\nG9oMETNfnXSEq8082ijWZGHYpPtk8DKa5P5PNJMvP9W1A7wGV1T/8ckkK0Dv7MgL\nRoqUZFKVwAY24gmNE03aPl20fHYSVMg4LDt/XwcU/xYACsvdmWev8dfZ7eprDHCM\nWPFEvMlzAgMBAAECggEAAvbidz0DBO2i+Mfx4/TnkkvX8kc4+Ihmid/6zS87CtCn\nm8CzlthAqY2fy60WOZ3zSiRxS7HcGkPbGWC1LhY9mBrbuoDCaHqxuODYzfhmaqjL\nOqgm8q5EXHq1wYQBg6gnA/uofIGFmDnEU90Svc2hQ1jk4gebHnZ6/uKuBjYH5iBX\nnSWv66hr9Nb8VKXZZcZ5FLl84Msw2hCDg4rTXo/oubyF/crHaJOrsIcbg38D+qDE\nRMb3a2gaAHsmr2e4yrpgK1uIXRJKlBfxBjSqDo2vzZyygvZs0Ks8DVT0625YUwCk\nEsGfokcoxxvxTT20jnSNqGOs+MwLWmIPEXWGSOQbgQKBgQDgbxYE+2Skz0jvkvXn\nMYXO7zERv2CYZiIqJTeDd7NFeBE/U+Nz9dwCYls1ViUow8XmVyBb30yj9PLbhsKX\n+wJpKycsw1UW46sf10hTa37/tJHcxfPrB+g3bjYh3YTvrUIIM2mChCh1ReqxqP1v\nP0Ij9MD8iqD7HQZ7zgT1rTnICwKBgQC37sKPp+FCbO/psTu97I4apYVNKBXDBHxa\nW3stfORexBhVrQyZKMLEqzJ4ymBRFyXF0TCIxlxqg6jyf4GxofJkqdkedbDXcANf\n16vi17JWQiLqnkmeiu/y8cRwyw3YYc7zpxPO7jXrlwA/CAyjzw+tF7hjB1mm4nYt\nypxzmWIdOQKBgBpdknWlXs5pt4TFe/PcAn8r5FTUabGdlffjhWEBZ+MKVuRco4TU\n5jK1gUeDxjvCu/XyWE/SrLs6JGmbrDKUf1UBh8mfbNiSiGDmNo3uO+4oNVZ9Pslm\nlWYloWBbGKnbbb1u5L87bVFRlF+onZU7FjcJIr7IPl8hqshSjIyb/AS/AoGAGJGJ\n54pzKl5GxZ5o7nuUl7aYUbATCBOnUKJ7l53hG09yOK9+yU6KhZ6ghUXzC6Hd58iD\nhSGJ4qhnfszNVB7fs9aEK+9oib5qlPjH+ur45VC8PT6bctP4LSliJfbZiJe3/w/I\nM5HaHffzjnfSyGa2H1bVyFSJAyOoyYEQ2NgaJPECgYAWYgACPWKwxwo2E0TJIAyW\nV2r3Qf8yIXZUkbAZ4WnTVNMttXxS28kPdjqAfrsqh8DlBDJflSrwnnBA5C04LD9R\nLpUhE9c00Ph7TX7J4GK9JUQaVaQo+hCBwh8/+FsQOQ6kZVXdmlhVnv0c2p9EAOO3\nwCZ8EnQMzU5PmePjZuh2fw==\n-----END PRIVATE KEY-----\n",
  "client_email": "arisesolar@arisesolar.iam.gserviceaccount.com",
  "client_id": "117387646250096130147",
  "auth_uri": "https://accounts.google.com/o/oauth2/auth",
  "token_uri": "https://oauth2.googleapis.com/token",
  "auth_provider_x509_cert_url": "https://www.googleapis.com/oauth2/v1/certs",
  "client_x509_cert_url": "https://www.googleapis.com/robot/v1/metadata/x509/arisesolar%40arisesolar.iam.gserviceaccount.com"
}
